id,user,title,content,photo1,photo2,photo3,created_at,updated_at
admin,投稿1回目,テスト投稿が成功しました！,IMG_202104061646140.JPEG,,,2021-11-23 07:20:03.469226,2021-11-23 07:20:03.470226
admin,2かいめ,,,,,2021-11-23 07:38:02.869208,2021-11-23 07:38:02.869208
admin,３かいめ,,,,,2021-11-23 07:38:19.247191,2021-11-23 07:38:19.247191
admin,５かいめ,,,,,2021-11-23 07:38:38.539339,2021-11-23 07:38:38.539339
admin,６かいめ,,,,,2021-11-23 07:38:45.279193,2021-11-23 07:38:45.279193
test,テスト投稿,てすてす,スクリーンショット_162.png,,,2021-11-24 02:08:12.733264,2021-11-24 02:08:12.740265
admin,４かいめ,本文のこうしん,,,,2021-11-23 07:38:26.599455,2021-11-24 02:37:29.825847
